<svg xmlns="http://www.w3.org/2000/svg" xmlns:xlink="http://www.w3.org/1999/xlink" width="43.864" height="44.351" viewBox="0 0 43.864 44.351">
  <defs>
    <clipPath id="clip-path">
      <rect id="Rectangle_1698" data-name="Rectangle 1698" width="43.864" height="44.351" fill="#eb2b90"/>
    </clipPath>
  </defs>
  <g id="Group_3149" data-name="Group 3149" clip-path="url(#clip-path)">
    <path id="Path_1333" data-name="Path 1333" d="M4.718,3.065c-1.065,0-2.111.012-3.156,0A1.521,1.521,0,0,1,.116.971,1.425,1.425,0,0,1,1.477.015q2.337-.029,4.674,0a1.516,1.516,0,0,1,1.49,1.506q.292,2.826.59,5.651c.015.142.046.282.08.479h.6q15.882,0,31.764,0a2.98,2.98,0,0,1,3.151,2.477,5.359,5.359,0,0,1-.139,1.882q-1.731,8.215-3.511,16.42a4.55,4.55,0,0,1-4.589,3.684q-11.78.007-23.561,0a4.582,4.582,0,0,1-4.692-4.33c-.449-4.4-.931-8.8-1.395-13.2q-.595-5.651-1.179-11.3c0-.047-.018-.093-.044-.219m36.133,7.67H8.611c.151,1.415.3,2.8.447,4.192q.665,6.315,1.331,12.631a1.522,1.522,0,0,0,1.684,1.5q11.733,0,23.466,0a1.541,1.541,0,0,0,1.68-1.362Q38.507,21.7,39.787,15.71c.353-1.647.7-3.293,1.064-4.976" transform="translate(0 0)" fill="#eb2b90"/>
    <path id="Path_1334" data-name="Path 1334" d="M76.5,285.281a4.586,4.586,0,1,1,4.588-4.576,4.6,4.6,0,0,1-4.588,4.576m.032-3.058a1.528,1.528,0,1,0-1.546-1.494,1.54,1.54,0,0,0,1.546,1.494" transform="translate(-62.764 -240.93)" fill="#eb2b90"/>
    <path id="Path_1335" data-name="Path 1335" d="M220.282,276.108a4.586,4.586,0,1,1-4.588,4.576,4.594,4.594,0,0,1,4.588-4.576m.009,3.058A1.528,1.528,0,1,0,221.8,280.7a1.538,1.538,0,0,0-1.506-1.535" transform="translate(-188.212 -240.929)" fill="#eb2b90"/>
    <path id="Path_1336" data-name="Path 1336" d="M137.586,127.177l3.871-4.848c.437-.547.867-1.1,1.311-1.638a1.527,1.527,0,1,1,2.375,1.914q-2.982,3.753-5.981,7.492a1.515,1.515,0,0,1-2.195.343q-2.227-1.47-4.438-2.964a1.527,1.527,0,1,1,1.683-2.545c1.116.729,2.22,1.476,3.374,2.245" transform="translate(-115.002 -104.757)" fill="#eb2b90"/>
  </g>
</svg>
