<svg version="1.2" xmlns="http://www.w3.org/2000/svg" viewBox="0 0 707 703" width="707" height="703">
	<title>Asset 4-svg</title>
	<style>
		.s0 { fill: #ffffff } 
		.s1 { fill: #243367 } 
		.s2 { fill: #a81351 } 
		.s3 { fill: none;stroke: #243367 } 
	</style>
	<g id="Layer_2">
		<circle id="Shape 1" class="s0" cx="354.7" cy="352.7" r="349.2"/>
		<g id="Layer_2-2">
			<path id="Layer" fill-rule="evenodd" class="s1" d="m326.5 529.9h-29.3q-7.2-16.8-9.7-20.8-4.5-7-9.8-8.1v28.9h-26.4v-91h34.4q18.9 0 28.1 6.9 9.8 7.3 9.8 23 0 20.5-15.2 26.9 4.7 4.2 18.1 34.2zm-33.6-70.3q-2.7-1.3-8.9-1.3h-6.3v21.1h7.7q6 0 8.6-1.6 3.6-2.2 3.6-8.7 0-7.1-4.7-9.5z"/>
			<path id="Layer" class="s1" d="m416.4 510.2q-0.7 1.7-1.6 3.3-0.9 1.6-1.9 3.1-1.1 1.5-2.3 2.9-1.2 1.3-2.6 2.5-10.6 9.8-27.1 9.8-20.3 0-33.8-13.8-13.3-13.6-13.3-33.6 0-19.9 13.1-33.5 13.4-13.9 34-13.9 16.4 0 27 9.5 1.4 1.2 2.6 2.6 1.2 1.4 2.3 2.9 1.1 1.5 2 3.1 0.9 1.6 1.6 3.3l-21.1 12q-5.4-9-14-9-18 0-18 22.8 0 23.1 18 23.1 8.6 0 14-9.1z"/>
			<path id="Layer" class="s1" d="m676.1 350.7q0 7.2-0.4 14.3-0.6 14.4-2.5 28.5-1.9 14.3-5 28.1-3.2 14.1-7.6 27.7-4.5 13.7-10.1 26.8l-0.1-0.1-17.1-7.3-17.3-7.3q5-11.8 8.9-23.7 3.8-12 6.7-24.4 2.8-12.2 4.4-24.8 1.7-12.4 2.3-25.2 0.2-6.2 0.2-12.6 0-6.3-0.2-12.6-0.6-12.8-2.3-25.2-1.7-12.6-4.4-24.8-2.8-12.3-6.7-24.4-4-12.1-8.9-23.6-5-11.6-11-22.8-6-11.2-12.9-21.7-7-10.6-14.9-20.4-7.9-9.9-16.6-19-8.8-9.1-18.3-17.5-9.5-8.4-19.7-15.8-10.3-7.4-21.1-13.9-10.8-6.5-22.2-12l8.1-16.9 8.1-16.8 0.1-0.1q12.8 6.2 25.1 13.6 12.3 7.3 23.9 15.8 11.5 8.4 22.4 17.8 10.8 9.5 20.7 19.8 9.9 10.4 18.8 21.6 9 11.1 16.9 23.1 7.9 12 14.7 24.6 6.7 12.5 12.4 25.8 5.6 13.2 10 26.8 4.4 13.5 7.6 27.6 3.1 13.9 5.1 28.2 1.9 14 2.5 28.5 0.4 7.1 0.4 14.3z"/>
			<path id="Layer" class="s1" d="m619.8 350.7c0 3.9-0.1 7.8-0.3 11.8q-0.5 11.8-2 23.4-1.6 11.8-4.2 23.2-2.6 11.5-6.2 22.8-3.7 11.3-8.3 22l-17.3-7.3-17.2-7.4-17.4-7.4q-3.7 8.5-8.1 16.7-4.4 8.2-9.5 15.9-5 7.7-10.8 15-5.8 7.2-12.2 13.9-6.4 6.7-13.4 12.8-7 6.1-14.5 11.6-7.4 5.4-15.4 10.2-7.9 4.8-16.3 8.8l-8.1-16.9-8.2-16.9q6.9-3.3 13.4-7.2 6.5-3.9 12.6-8.4 6.1-4.4 11.8-9.4 5.8-5 11-10.5c3.5-3.7 6.9-7.5 10-11.4 3.1-4 6.1-8.1 8.8-12.3 2.8-4.2 5.4-8.5 7.8-13 2.4-4.4 4.6-9 6.6-13.6 2-4.7 3.8-9.5 5.3-14.2 1.6-4.8 2.9-9.7 4-14.6q1.7-7.4 2.7-15 1-7.4 1.4-15 0.1-3.8 0.1-7.6 0-3.8-0.1-7.6l18.7-0.8 18.8-0.9q0.2 4.6 0.2 9.3 0 4.6-0.2 9.2-0.5 9.4-1.7 18.5-1.2 9.2-3.3 18.2l18.3 4.2q2.3-10 3.6-19.9 1.4-9.9 1.8-20.1 0.3-5 0.3-10.1 0-5.1-0.2-10.1-0.5-10.2-1.8-20.1-1.4-10.1-3.6-19.9-2.2-9.8-5.3-19.5-3.2-9.7-7.1-18.9-4.1-9.3-8.9-18.2-4.8-9-10.4-17.4-5.5-8.4-11.8-16.3-6.3-7.9-13.3-15.2-7-7.3-14.6-14-7.6-6.7-15.8-12.6-8.3-5.9-16.9-11.1-8.6-5.2-17.7-9.6l8.1-16.9 8.2-16.9q10.6 5.1 20.7 11.1 10.1 6.1 19.6 13 9.6 7 18.5 14.7 8.8 7.8 17 16.3 8.2 8.6 15.5 17.8 7.4 9.3 13.9 19.1 6.5 9.8 12.1 20.2 5.6 10.4 10.2 21.2 4.6 10.8 8.3 22.1 3.6 11.3 6.2 22.7 2.6 11.5 4.2 23.2 1.6 11.7 2.1 23.5c0.2 4 0.3 7.8 0.3 11.8z"/>
			<path id="Layer" fill-rule="evenodd" class="s1" d="m450.9 350.6q0 2.2-0.1 4.3c-0.1 2.8-0.3 5.5-0.7 8.3-0.4 2.8-0.9 5.6-1.5 8.3-0.6 2.8-1.4 5.4-2.3 8.1q-1.3 4.1-2.9 7.9-1.7 3.9-3.7 7.6-2 3.7-4.3 7.2-2.3 3.6-4.9 6.8l-0.3-0.2h-251.4v-0.3l-0.2 0.1q-2.6-8-4.5-16.3-1.8-8.3-2.9-16.5-1.1-8.3-1.5-16.8-0.2-4.2-0.2-8.4 0-4.3 0.2-8.4 0.4-8.5 1.5-16.8l-18.6-2.5q-1.2 9.1-1.7 18.4-0.2 4.6-0.2 9.3 0 4.6 0.2 9.2c0.3 6.3 0.9 12.3 1.7 18.5 0.8 6.2 1.9 12.2 3.3 18.2 1.4 6 3 12 4.9 17.9l-17.9 5.8-17.8 5.8-17.9 5.8-17.8 5.8-17.9 5.8-17.7 5.8h-0.1q-4.4-13.6-7.6-27.6-3.2-13.9-5.1-28.2-1.9-14.1-2.5-28.5-0.3-7.1-0.3-14.3 0-7.2 0.3-14.3 0.7-14.5 2.5-28.5 2-14.4 5.1-28.2 3.2-14.1 7.6-27.6 4.5-13.7 10.1-26.8 5.6-13.1 12.4-25.8 6.8-12.6 14.7-24.5 7.9-12 16.8-23.2 9-11.2 18.9-21.5 9.9-10.4 20.7-19.8 10.8-9.5 22.4-17.9 11.6-8.4 23.8-15.8 12.3-7.3 25.2-13.6l0.1 0.2 8.1 16.7 8.1 16.9q-11.4 5.5-22.3 12-10.8 6.5-21 13.9-10.2 7.5-19.8 15.8-9.5 8.3-18.2 17.5-8.8 9.1-16.6 19-7.9 9.8-14.9 20.4-6.9 10.6-13 21.7-6 11.1-10.9 22.7-5 11.7-8.9 23.7-3.9 11.9-6.7 24.3-2.8 12.3-4.5 24.9-1.7 12.4-2.2 25.2-0.3 6.2-0.3 12.6 0 6.3 0.3 12.6 0.6 12.7 2.2 25.2l18.6-2.6 18.6-2.5q-1.5-10.8-1.9-21.8-0.3-5.4-0.3-10.9 0-5.5 0.3-11 0.5-11 1.9-21.8 1.5-10.8 3.9-21.5 2.4-10.7 5.8-21.1l17.9 5.8 17.8 5.8 17.8 5.8 17.9 5.8 17.9 5.9q-2.1 6.4-3.6 13-1.5 6.6-2.4 13.2-0.9 6.6-1.2 13.4-0.1 3.4-0.1 6.8 0 3.4 0.1 6.7 0.3 6.8 1.2 13.4 0.3 2.4 0.7 4.8h19q-0.7-3.6-1.2-7.3c-0.5-3.8-0.8-7.8-1-11.7q-0.1-3-0.1-6 0-2.9 0.1-5.9c0.2-4 0.6-7.8 1.1-11.7q0.8-5.9 2.1-11.6 1.3-5.8 3.1-11.4l17.8 5.8q-1.5 4.8-2.6 9.7-1.1 5-1.8 10-0.7 4.9-0.9 10c-0.1 1.7-0.1 3.4-0.1 5.1q0 2.5 0.1 5 0.2 5.1 0.9 10.1 0.6 4.9 1.7 9.8h19.4q-0.6-2-1-4-1-4.1-1.5-8.3-0.6-4.2-0.8-8.4c0-1.4 0-2.8 0-4.2q0-2.1 0-4.2c0.2-2.9 0.4-5.6 0.8-8.4 0.4-2.8 0.9-5.5 1.5-8.3 0.6-2.7 1.3-5.4 2.2-8.1q1.3-4 3-7.9c1.1-2.6 2.3-5.1 3.6-7.6q2.1-3.7 4.3-7.2 2.3-3.5 5-6.8 2.6-3.3 5.5-6.4c1.9-2 4-3.9 6.1-5.8 2.1-1.8 4.3-3.5 6.6-5.2 2.2-1.7 4.6-3.3 7-4.7 2.4-1.4 4.9-2.7 7.4-3.9 2.5-1.2 5.1-2.3 7.8-3.3 2.6-1 5.3-1.9 8-2.6 2.7-0.8 5.4-1.4 8.2-1.9 2.7-0.5 5.5-0.9 8.3-1.1q4.2-0.4 8.4-0.4c2.9 0 5.6 0.2 8.4 0.4 2.9 0.2 5.6 0.6 8.4 1.1 2.8 0.5 5.5 1.1 8.2 1.9q4.1 1.1 8 2.6c2.6 1 5.2 2.1 7.7 3.3q3.8 1.7 7.5 3.9 3.6 2.2 7 4.7c2.3 1.6 4.4 3.3 6.6 5.2 2.1 1.9 4.1 3.8 6 5.8q3 3.1 5.6 6.4c1.7 2.2 3.4 4.5 4.9 6.8 1.6 2.3 3 4.7 4.3 7.2q2 3.7 3.7 7.6c1.1 2.6 2.1 5.2 2.9 7.9 0.9 2.6 1.7 5.4 2.3 8.1q0.9 4.1 1.5 8.3 0.5 4.1 0.7 8.4c0.1 1.4 0.1 2.7 0.1 4.1zm-37.5 0.1q0-1.3 0-2.5c-0.1-1.7-0.3-3.4-0.5-5.1-0.2-1.6-0.5-3.3-0.9-4.9q-0.5-2.5-1.3-4.9-0.8-2.4-1.8-4.7-1-2.3-2.2-4.6-1.2-2.2-2.6-4.3-0.3-0.5-0.7-1-0.3-0.6-0.7-1.1-0.4-0.5-0.8-1-0.4-0.5-0.8-1-1.5-1.9-3.3-3.8-1.7-1.8-3.6-3.5-1.9-1.6-4-3.1c-1.3-1-2.7-1.9-4.2-2.8-1.5-0.9-2.9-1.7-4.4-2.4-1.5-0.7-3.1-1.4-4.7-2-1.5-0.5-3.2-1.1-4.8-1.5q-2.4-0.7-4.9-1.2c-1.7-0.3-3.4-0.5-5-0.6q-2.5-0.2-5.1-0.2c-1.7 0-3.3 0-5 0.2-1.7 0.1-3.3 0.3-5 0.6-1.7 0.3-3.3 0.7-5 1.2q-2.4 0.6-4.8 1.5c-1.5 0.6-3.1 1.2-4.6 2q-2.2 1.1-4.4 2.4-2.2 1.3-4.3 2.8-2 1.5-3.9 3.1-1.9 1.7-3.7 3.5-1.7 1.8-3.3 3.8-0.4 0.5-0.8 1-0.4 0.5-0.7 1-0.4 0.5-0.8 1.1-0.3 0.5-0.7 1c-0.9 1.4-1.7 2.9-2.5 4.3q-1.3 2.3-2.2 4.6-1 2.3-1.8 4.7c-0.5 1.6-1 3.3-1.4 4.9-0.3 1.6-0.6 3.3-0.9 4.9q-0.3 2.5-0.4 5.1-0.1 1.2-0.1 2.5c0 0.8 0.1 1.7 0.1 2.5q0.1 2.6 0.4 5c0.3 1.7 0.6 3.3 0.9 5q0.6 2.4 1.4 4.8 0.8 2.5 1.8 4.8 0.6 1.4 1.2 2.7h101q0.7-1.3 1.3-2.7 1-2.4 1.7-4.8c0.6-1.6 1-3.2 1.4-4.8 0.4-1.6 0.7-3.3 0.9-5q0.3-2.4 0.4-5 0.1-1.2 0.1-2.5z"/>
			<path id="Layer" class="s1" d="m561.6 323l-18.6 2.5-18.6 2.5c-0.7-5-1.6-10-2.7-14.9q-1.7-7.4-4-14.6-2.4-7.3-5.3-14.2-3-7-6.6-13.7-3.6-6.7-7.8-13-4.1-6.3-8.9-12.2-4.7-6-9.9-11.4-5.3-5.5-11-10.5-5.7-5-11.8-9.5-6.2-4.4-12.7-8.3-6.5-3.9-13.3-7.2l8.1-16.9 8.2-16.9q8.3 4 16.3 8.8 8 4.7 15.4 10.2 7.5 5.4 14.5 11.5 7 6.1 13.4 12.8 6.4 6.7 12.2 14 5.7 7.2 10.8 15 5.2 7.7 9.6 15.9 4.3 8.1 8 16.6 3.6 8.6 6.5 17.4 2.9 8.8 4.9 17.9 2.1 8.9 3.3 18.2z"/>
			<circle id="Layer" class="s1" cx="92.1" cy="476.6" r="22.4"/>
			<circle id="Layer" class="s1" cx="357.1" cy="162.9" r="22.4"/>
			<circle id="Layer" class="s1" cx="141.3" cy="455.5" r="22.4"/>
			<path id="Layer" class="s2" d="m638.1 501.9q-6.8 12.6-14.7 24.5-7.9 12-16.8 23.2-9 11.2-18.9 21.5-9.9 10.4-20.7 19.8-10.8 9.4-22.4 17.9-11.6 8.4-23.8 15.7-12.3 7.4-25.2 13.6-13 6.2-26.4 11.3-13.3 5-27.2 8.9-13.7 3.7-27.9 6.3-14 2.5-28.4 3.8-14 1.2-28.5 1.2-14.5 0-28.6-1.2-14.4-1.3-28.4-3.8-14.2-2.6-27.9-6.4-13.8-3.8-27.3-8.9-13.5-5-26.3-11.2-12.9-6.2-25.2-13.6-12.3-7.3-23.9-15.8-11.5-8.4-22.3-17.8-10.9-9.4-20.7-19.8-9.9-10.4-18.9-21.6-8.9-11.1-16.8-23.1l0.1-0.1 15.5-10.2 15.7-10.4q7 10.6 14.9 20.5 7.9 9.8 16.6 19c5.8 6.1 11.9 11.9 18.2 17.4 6.4 5.6 13 10.9 19.8 15.8q10.2 7.4 21 13.9c7.3 4.4 14.7 8.4 22.2 12 7.6 3.7 15.4 7 23.3 9.9 7.8 3 15.9 5.6 24 7.8 8.1 2.3 16.4 4.1 24.6 5.6 8.3 1.5 16.8 2.7 25.1 3.4 8.3 0.7 16.8 1.1 25.2 1.1 8.5 0 16.9-0.4 25.2-1.1q12.7-1.2 25.1-3.4 12.5-2.2 24.6-5.6 12.3-3.3 24-7.8 11.9-4.4 23.3-9.9 11.4-5.5 22.2-12 10.9-6.4 21.1-13.9 10.2-7.4 19.7-15.7 9.5-8.4 18.3-17.5 8.7-9.1 16.6-19 7.9-9.9 14.9-20.4 6.9-10.6 12.9-21.7l16.6 8.8 16.4 8.9z"/>
			<path id="Layer" class="s2" d="m588.5 475.2q-5.6 10.3-12.1 20.2-6.5 9.9-13.9 19.1-7.4 9.2-15.5 17.7-8.2 8.6-17.1 16.3-8.8 7.8-18.4 14.7-9.5 7-19.7 13-10.1 6.1-20.7 11.2-10.6 5.1-21.7 9.3-11.1 4.1-22.4 7.3-11.3 3.1-23 5.2-11.5 2-23.3 3.1-11.7 1.1-23.6 1-11.9 0-23.5-1-11.9-1.1-23.4-3.1-11.7-2.1-23-5.2-11.3-3.2-22.4-7.3-11.1-4.2-21.7-9.3-10.6-5.1-20.7-11.2-10.2-6.1-19.7-13-9.5-6.9-18.4-14.7-8.9-7.7-17.1-16.3-8.1-8.5-15.5-17.7-7.3-9.2-13.8-19.1l15.6-10.3 15.7-10.4q5.5 8.5 11.8 16.4 6.4 7.9 13.3 15.2 7.2 7.3 14.8 14 7.6 6.7 15.8 12.6 8.2 5.9 16.8 11.1 8.7 5.2 17.8 9.6 9.1 4.4 18.6 7.9 9.4 3.5 19.2 6.2 9.8 2.7 19.7 4.5 9.9 1.8 20 2.7 10 0.9 20.2 0.9 10.2 0 20.2-0.9 10.1-0.9 20-2.7 9.9-1.8 19.7-4.5 9.9-2.7 19.3-6.2 9.4-3.5 18.5-7.9 9.2-4.4 17.8-9.6 8.7-5.2 16.9-11.1 8.1-6 15.7-12.6 7.6-6.7 14.6-14 7-7.3 13.3-15.2 6.3-7.9 11.9-16.4 5.5-8.4 10.3-17.3l16.6 8.9z"/>
			<path id="Layer" class="s3" d="m267.5 164.7q-8.3 4-16.3 8.8-7.9 4.7-15.4 10.2-7.5 5.3-14.5 11.5-6.9 6.1-13.3 12.8-6.5 6.7-12.2 13.9-5.8 7.3-10.9 15-5.1 7.8-9.5 15.9-4.4 8.2-8 16.7l-17.3-7.4-17.3-7.3q4.4-10.1 9.6-19.8 5.2-9.6 11.2-18.7 6-9.1 12.9-17.7 6.8-8.6 14.4-16.5 7.5-7.9 15.8-15.1 8.2-7.2 17.1-13.7 8.8-6.4 18.2-12.1 9.4-5.6 19.3-10.3l8.1 16.9z"/>
			<path id="Layer" class="s3" d="m292 215.4q-6.1 2.9-11.9 6.4-5.8 3.5-11.2 7.5-5.4 3.9-10.5 8.4-5.1 4.4-9.8 9.3-4.7 4.9-8.9 10.1-4.1 5.2-7.8 10.9-3.8 5.6-7 11.5-3.1 5.9-5.8 12.2l-17.3-7.4-17.2-7.4c2.2-5.2 4.6-10.2 7.3-15.1q4-7.5 8.6-14.5 4.7-7 9.9-13.6 5.3-6.6 11.1-12.7 5.9-6.1 12.2-11.6 6.3-5.6 13.2-10.5c4.5-3.3 9.2-6.5 14-9.3 4.8-2.9 9.7-5.6 14.8-8l8.1 16.9z"/>
		</g>
	</g>
</svg>